\relax 
\@writefile{toc}{\contentsline {section}{\numberline {1}Question}{1}}
\@writefile{toc}{\contentsline {section}{\numberline {2}Assignment}{1}}
\@writefile{lof}{\contentsline {figure}{\numberline {1}{\ignorespaces Plot of $F(\phi ,k)$ vs. $\phi $ for different values of $k$.}}{1}}
\newlabel{figure1}{{1}{1}}
\@writefile{lof}{\contentsline {figure}{\numberline {2}{\ignorespaces Plot of the differents between the two methods used to calculate $F(\phi ,k)$ vs. $\phi $ for different values of $k$.}}{2}}
\newlabel{figure2}{{2}{2}}
\@writefile{lof}{\contentsline {figure}{\numberline {3}{\ignorespaces Plot of $F(\phi ,k)$ vs. $k$ for different values of $\phi $.}}{2}}
\newlabel{figure3}{{3}{2}}
\@writefile{lof}{\contentsline {figure}{\numberline {4}{\ignorespaces Plot of the differents between the two methods used to calculate $F(\phi ,k)$ vs. $k$ for different values of $\phi $.}}{2}}
\newlabel{figure4}{{4}{2}}
