%!PS-Adobe-2.0
%%Title: plot.ps
%%Creator: gnuplot 5.0 patchlevel 3
%%CreationDate: Tue Mar 21 00:37:47 2017
%%DocumentFonts: (atend)
%%BoundingBox: 50 50 554 770
%%Orientation: Landscape
%%Pages: (atend)
%%EndComments
%%BeginProlog
/gnudict 256 dict def
gnudict begin
%
% The following true/false flags may be edited by hand if desired.
% The unit line width and grayscale image gamma correction may also be changed.
%
/Color false def
/Blacktext false def
/Solid false def
/Dashlength 1 def
/Landscape true def
/Level1 false def
/Level3 false def
/Rounded false def
/ClipToBoundingBox false def
/SuppressPDFMark false def
/TransparentPatterns false def
/gnulinewidth 5.000 def
/userlinewidth gnulinewidth def
/Gamma 1.0 def
/BackgroundColor {-1.000 -1.000 -1.000} def
%
/vshift -46 def
/dl1 {
  10.0 Dashlength userlinewidth gnulinewidth div mul mul mul
  Rounded { currentlinewidth 0.75 mul sub dup 0 le { pop 0.01 } if } if
} def
/dl2 {
  10.0 Dashlength userlinewidth gnulinewidth div mul mul mul
  Rounded { currentlinewidth 0.75 mul add } if
} def
/hpt_ 31.5 def
/vpt_ 31.5 def
/hpt hpt_ def
/vpt vpt_ def
/doclip {
  ClipToBoundingBox {
    newpath 50 50 moveto 554 50 lineto 554 770 lineto 50 770 lineto closepath
    clip
  } if
} def
%
% Gnuplot Prolog Version 5.1 (Oct 2015)
%
%/SuppressPDFMark true def
%
/M {moveto} bind def
/L {lineto} bind def
/R {rmoveto} bind def
/V {rlineto} bind def
/N {newpath moveto} bind def
/Z {closepath} bind def
/C {setrgbcolor} bind def
/f {rlineto fill} bind def
/g {setgray} bind def
/Gshow {show} def   % May be redefined later in the file to support UTF-8
/vpt2 vpt 2 mul def
/hpt2 hpt 2 mul def
/Lshow {currentpoint stroke M 0 vshift R 
	Blacktext {gsave 0 setgray textshow grestore} {textshow} ifelse} def
/Rshow {currentpoint stroke M dup stringwidth pop neg vshift R
	Blacktext {gsave 0 setgray textshow grestore} {textshow} ifelse} def
/Cshow {currentpoint stroke M dup stringwidth pop -2 div vshift R 
	Blacktext {gsave 0 setgray textshow grestore} {textshow} ifelse} def
/UP {dup vpt_ mul /vpt exch def hpt_ mul /hpt exch def
  /hpt2 hpt 2 mul def /vpt2 vpt 2 mul def} def
/DL {Color {setrgbcolor Solid {pop []} if 0 setdash}
 {pop pop pop 0 setgray Solid {pop []} if 0 setdash} ifelse} def
/BL {stroke userlinewidth 2 mul setlinewidth
	Rounded {1 setlinejoin 1 setlinecap} if} def
/AL {stroke userlinewidth 2 div setlinewidth
	Rounded {1 setlinejoin 1 setlinecap} if} def
/UL {dup gnulinewidth mul /userlinewidth exch def
	dup 1 lt {pop 1} if 10 mul /udl exch def} def
/PL {stroke userlinewidth setlinewidth
	Rounded {1 setlinejoin 1 setlinecap} if} def
3.8 setmiterlimit
% Classic Line colors (version 5.0)
/LCw {1 1 1} def
/LCb {0 0 0} def
/LCa {0 0 0} def
/LC0 {1 0 0} def
/LC1 {0 1 0} def
/LC2 {0 0 1} def
/LC3 {1 0 1} def
/LC4 {0 1 1} def
/LC5 {1 1 0} def
/LC6 {0 0 0} def
/LC7 {1 0.3 0} def
/LC8 {0.5 0.5 0.5} def
% Default dash patterns (version 5.0)
/LTB {BL [] LCb DL} def
/LTw {PL [] 1 setgray} def
/LTb {PL [] LCb DL} def
/LTa {AL [1 udl mul 2 udl mul] 0 setdash LCa setrgbcolor} def
/LT0 {PL [] LC0 DL} def
/LT1 {PL [2 dl1 3 dl2] LC1 DL} def
/LT2 {PL [1 dl1 1.5 dl2] LC2 DL} def
/LT3 {PL [6 dl1 2 dl2 1 dl1 2 dl2] LC3 DL} def
/LT4 {PL [1 dl1 2 dl2 6 dl1 2 dl2 1 dl1 2 dl2] LC4 DL} def
/LT5 {PL [4 dl1 2 dl2] LC5 DL} def
/LT6 {PL [1.5 dl1 1.5 dl2 1.5 dl1 1.5 dl2 1.5 dl1 6 dl2] LC6 DL} def
/LT7 {PL [3 dl1 3 dl2 1 dl1 3 dl2] LC7 DL} def
/LT8 {PL [2 dl1 2 dl2 2 dl1 6 dl2] LC8 DL} def
/SL {[] 0 setdash} def
/Pnt {stroke [] 0 setdash gsave 1 setlinecap M 0 0 V stroke grestore} def
/Dia {stroke [] 0 setdash 2 copy vpt add M
  hpt neg vpt neg V hpt vpt neg V
  hpt vpt V hpt neg vpt V closepath stroke
  Pnt} def
/Pls {stroke [] 0 setdash vpt sub M 0 vpt2 V
  currentpoint stroke M
  hpt neg vpt neg R hpt2 0 V stroke
 } def
/Box {stroke [] 0 setdash 2 copy exch hpt sub exch vpt add M
  0 vpt2 neg V hpt2 0 V 0 vpt2 V
  hpt2 neg 0 V closepath stroke
  Pnt} def
/Crs {stroke [] 0 setdash exch hpt sub exch vpt add M
  hpt2 vpt2 neg V currentpoint stroke M
  hpt2 neg 0 R hpt2 vpt2 V stroke} def
/TriU {stroke [] 0 setdash 2 copy vpt 1.12 mul add M
  hpt neg vpt -1.62 mul V
  hpt 2 mul 0 V
  hpt neg vpt 1.62 mul V closepath stroke
  Pnt} def
/Star {2 copy Pls Crs} def
/BoxF {stroke [] 0 setdash exch hpt sub exch vpt add M
  0 vpt2 neg V hpt2 0 V 0 vpt2 V
  hpt2 neg 0 V closepath fill} def
/TriUF {stroke [] 0 setdash vpt 1.12 mul add M
  hpt neg vpt -1.62 mul V
  hpt 2 mul 0 V
  hpt neg vpt 1.62 mul V closepath fill} def
/TriD {stroke [] 0 setdash 2 copy vpt 1.12 mul sub M
  hpt neg vpt 1.62 mul V
  hpt 2 mul 0 V
  hpt neg vpt -1.62 mul V closepath stroke
  Pnt} def
/TriDF {stroke [] 0 setdash vpt 1.12 mul sub M
  hpt neg vpt 1.62 mul V
  hpt 2 mul 0 V
  hpt neg vpt -1.62 mul V closepath fill} def
/DiaF {stroke [] 0 setdash vpt add M
  hpt neg vpt neg V hpt vpt neg V
  hpt vpt V hpt neg vpt V closepath fill} def
/Pent {stroke [] 0 setdash 2 copy gsave
  translate 0 hpt M 4 {72 rotate 0 hpt L} repeat
  closepath stroke grestore Pnt} def
/PentF {stroke [] 0 setdash gsave
  translate 0 hpt M 4 {72 rotate 0 hpt L} repeat
  closepath fill grestore} def
/Circle {stroke [] 0 setdash 2 copy
  hpt 0 360 arc stroke Pnt} def
/CircleF {stroke [] 0 setdash hpt 0 360 arc fill} def
/C0 {BL [] 0 setdash 2 copy moveto vpt 90 450 arc} bind def
/C1 {BL [] 0 setdash 2 copy moveto
	2 copy vpt 0 90 arc closepath fill
	vpt 0 360 arc closepath} bind def
/C2 {BL [] 0 setdash 2 copy moveto
	2 copy vpt 90 180 arc closepath fill
	vpt 0 360 arc closepath} bind def
/C3 {BL [] 0 setdash 2 copy moveto
	2 copy vpt 0 180 arc closepath fill
	vpt 0 360 arc closepath} bind def
/C4 {BL [] 0 setdash 2 copy moveto
	2 copy vpt 180 270 arc closepath fill
	vpt 0 360 arc closepath} bind def
/C5 {BL [] 0 setdash 2 copy moveto
	2 copy vpt 0 90 arc
	2 copy moveto
	2 copy vpt 180 270 arc closepath fill
	vpt 0 360 arc} bind def
/C6 {BL [] 0 setdash 2 copy moveto
	2 copy vpt 90 270 arc closepath fill
	vpt 0 360 arc closepath} bind def
/C7 {BL [] 0 setdash 2 copy moveto
	2 copy vpt 0 270 arc closepath fill
	vpt 0 360 arc closepath} bind def
/C8 {BL [] 0 setdash 2 copy moveto
	2 copy vpt 270 360 arc closepath fill
	vpt 0 360 arc closepath} bind def
/C9 {BL [] 0 setdash 2 copy moveto
	2 copy vpt 270 450 arc closepath fill
	vpt 0 360 arc closepath} bind def
/C10 {BL [] 0 setdash 2 copy 2 copy moveto vpt 270 360 arc closepath fill
	2 copy moveto
	2 copy vpt 90 180 arc closepath fill
	vpt 0 360 arc closepath} bind def
/C11 {BL [] 0 setdash 2 copy moveto
	2 copy vpt 0 180 arc closepath fill
	2 copy moveto
	2 copy vpt 270 360 arc closepath fill
	vpt 0 360 arc closepath} bind def
/C12 {BL [] 0 setdash 2 copy moveto
	2 copy vpt 180 360 arc closepath fill
	vpt 0 360 arc closepath} bind def
/C13 {BL [] 0 setdash 2 copy moveto
	2 copy vpt 0 90 arc closepath fill
	2 copy moveto
	2 copy vpt 180 360 arc closepath fill
	vpt 0 360 arc closepath} bind def
/C14 {BL [] 0 setdash 2 copy moveto
	2 copy vpt 90 360 arc closepath fill
	vpt 0 360 arc} bind def
/C15 {BL [] 0 setdash 2 copy vpt 0 360 arc closepath fill
	vpt 0 360 arc closepath} bind def
/Rec {newpath 4 2 roll moveto 1 index 0 rlineto 0 exch rlineto
	neg 0 rlineto closepath} bind def
/Square {dup Rec} bind def
/Bsquare {vpt sub exch vpt sub exch vpt2 Square} bind def
/S0 {BL [] 0 setdash 2 copy moveto 0 vpt rlineto BL Bsquare} bind def
/S1 {BL [] 0 setdash 2 copy vpt Square fill Bsquare} bind def
/S2 {BL [] 0 setdash 2 copy exch vpt sub exch vpt Square fill Bsquare} bind def
/S3 {BL [] 0 setdash 2 copy exch vpt sub exch vpt2 vpt Rec fill Bsquare} bind def
/S4 {BL [] 0 setdash 2 copy exch vpt sub exch vpt sub vpt Square fill Bsquare} bind def
/S5 {BL [] 0 setdash 2 copy 2 copy vpt Square fill
	exch vpt sub exch vpt sub vpt Square fill Bsquare} bind def
/S6 {BL [] 0 setdash 2 copy exch vpt sub exch vpt sub vpt vpt2 Rec fill Bsquare} bind def
/S7 {BL [] 0 setdash 2 copy exch vpt sub exch vpt sub vpt vpt2 Rec fill
	2 copy vpt Square fill Bsquare} bind def
/S8 {BL [] 0 setdash 2 copy vpt sub vpt Square fill Bsquare} bind def
/S9 {BL [] 0 setdash 2 copy vpt sub vpt vpt2 Rec fill Bsquare} bind def
/S10 {BL [] 0 setdash 2 copy vpt sub vpt Square fill 2 copy exch vpt sub exch vpt Square fill
	Bsquare} bind def
/S11 {BL [] 0 setdash 2 copy vpt sub vpt Square fill 2 copy exch vpt sub exch vpt2 vpt Rec fill
	Bsquare} bind def
/S12 {BL [] 0 setdash 2 copy exch vpt sub exch vpt sub vpt2 vpt Rec fill Bsquare} bind def
/S13 {BL [] 0 setdash 2 copy exch vpt sub exch vpt sub vpt2 vpt Rec fill
	2 copy vpt Square fill Bsquare} bind def
/S14 {BL [] 0 setdash 2 copy exch vpt sub exch vpt sub vpt2 vpt Rec fill
	2 copy exch vpt sub exch vpt Square fill Bsquare} bind def
/S15 {BL [] 0 setdash 2 copy Bsquare fill Bsquare} bind def
/D0 {gsave translate 45 rotate 0 0 S0 stroke grestore} bind def
/D1 {gsave translate 45 rotate 0 0 S1 stroke grestore} bind def
/D2 {gsave translate 45 rotate 0 0 S2 stroke grestore} bind def
/D3 {gsave translate 45 rotate 0 0 S3 stroke grestore} bind def
/D4 {gsave translate 45 rotate 0 0 S4 stroke grestore} bind def
/D5 {gsave translate 45 rotate 0 0 S5 stroke grestore} bind def
/D6 {gsave translate 45 rotate 0 0 S6 stroke grestore} bind def
/D7 {gsave translate 45 rotate 0 0 S7 stroke grestore} bind def
/D8 {gsave translate 45 rotate 0 0 S8 stroke grestore} bind def
/D9 {gsave translate 45 rotate 0 0 S9 stroke grestore} bind def
/D10 {gsave translate 45 rotate 0 0 S10 stroke grestore} bind def
/D11 {gsave translate 45 rotate 0 0 S11 stroke grestore} bind def
/D12 {gsave translate 45 rotate 0 0 S12 stroke grestore} bind def
/D13 {gsave translate 45 rotate 0 0 S13 stroke grestore} bind def
/D14 {gsave translate 45 rotate 0 0 S14 stroke grestore} bind def
/D15 {gsave translate 45 rotate 0 0 S15 stroke grestore} bind def
/DiaE {stroke [] 0 setdash vpt add M
  hpt neg vpt neg V hpt vpt neg V
  hpt vpt V hpt neg vpt V closepath stroke} def
/BoxE {stroke [] 0 setdash exch hpt sub exch vpt add M
  0 vpt2 neg V hpt2 0 V 0 vpt2 V
  hpt2 neg 0 V closepath stroke} def
/TriUE {stroke [] 0 setdash vpt 1.12 mul add M
  hpt neg vpt -1.62 mul V
  hpt 2 mul 0 V
  hpt neg vpt 1.62 mul V closepath stroke} def
/TriDE {stroke [] 0 setdash vpt 1.12 mul sub M
  hpt neg vpt 1.62 mul V
  hpt 2 mul 0 V
  hpt neg vpt -1.62 mul V closepath stroke} def
/PentE {stroke [] 0 setdash gsave
  translate 0 hpt M 4 {72 rotate 0 hpt L} repeat
  closepath stroke grestore} def
/CircE {stroke [] 0 setdash 
  hpt 0 360 arc stroke} def
/Opaque {gsave closepath 1 setgray fill grestore 0 setgray closepath} def
/DiaW {stroke [] 0 setdash vpt add M
  hpt neg vpt neg V hpt vpt neg V
  hpt vpt V hpt neg vpt V Opaque stroke} def
/BoxW {stroke [] 0 setdash exch hpt sub exch vpt add M
  0 vpt2 neg V hpt2 0 V 0 vpt2 V
  hpt2 neg 0 V Opaque stroke} def
/TriUW {stroke [] 0 setdash vpt 1.12 mul add M
  hpt neg vpt -1.62 mul V
  hpt 2 mul 0 V
  hpt neg vpt 1.62 mul V Opaque stroke} def
/TriDW {stroke [] 0 setdash vpt 1.12 mul sub M
  hpt neg vpt 1.62 mul V
  hpt 2 mul 0 V
  hpt neg vpt -1.62 mul V Opaque stroke} def
/PentW {stroke [] 0 setdash gsave
  translate 0 hpt M 4 {72 rotate 0 hpt L} repeat
  Opaque stroke grestore} def
/CircW {stroke [] 0 setdash 
  hpt 0 360 arc Opaque stroke} def
/BoxFill {gsave Rec 1 setgray fill grestore} def
/Density {
  /Fillden exch def
  currentrgbcolor
  /ColB exch def /ColG exch def /ColR exch def
  /ColR ColR Fillden mul Fillden sub 1 add def
  /ColG ColG Fillden mul Fillden sub 1 add def
  /ColB ColB Fillden mul Fillden sub 1 add def
  ColR ColG ColB setrgbcolor} def
/BoxColFill {gsave Rec PolyFill} def
/PolyFill {gsave Density fill grestore grestore} def
/h {rlineto rlineto rlineto gsave closepath fill grestore} bind def
%
% PostScript Level 1 Pattern Fill routine for rectangles
% Usage: x y w h s a XX PatternFill
%	x,y = lower left corner of box to be filled
%	w,h = width and height of box
%	  a = angle in degrees between lines and x-axis
%	 XX = 0/1 for no/yes cross-hatch
%
/PatternFill {gsave /PFa [ 9 2 roll ] def
  PFa 0 get PFa 2 get 2 div add PFa 1 get PFa 3 get 2 div add translate
  PFa 2 get -2 div PFa 3 get -2 div PFa 2 get PFa 3 get Rec
  TransparentPatterns {} {gsave 1 setgray fill grestore} ifelse
  clip
  currentlinewidth 0.5 mul setlinewidth
  /PFs PFa 2 get dup mul PFa 3 get dup mul add sqrt def
  0 0 M PFa 5 get rotate PFs -2 div dup translate
  0 1 PFs PFa 4 get div 1 add floor cvi
	{PFa 4 get mul 0 M 0 PFs V} for
  0 PFa 6 get ne {
	0 1 PFs PFa 4 get div 1 add floor cvi
	{PFa 4 get mul 0 2 1 roll M PFs 0 V} for
 } if
  stroke grestore} def
%
/languagelevel where
 {pop languagelevel} {1} ifelse
dup 2 lt
	{/InterpretLevel1 true def
	 /InterpretLevel3 false def}
	{/InterpretLevel1 Level1 def
	 2 gt
	    {/InterpretLevel3 Level3 def}
	    {/InterpretLevel3 false def}
	 ifelse }
 ifelse
%
% PostScript level 2 pattern fill definitions
%
/Level2PatternFill {
/Tile8x8 {/PaintType 2 /PatternType 1 /TilingType 1 /BBox [0 0 8 8] /XStep 8 /YStep 8}
	bind def
/KeepColor {currentrgbcolor [/Pattern /DeviceRGB] setcolorspace} bind def
<< Tile8x8
 /PaintProc {0.5 setlinewidth pop 0 0 M 8 8 L 0 8 M 8 0 L stroke} 
>> matrix makepattern
/Pat1 exch def
<< Tile8x8
 /PaintProc {0.5 setlinewidth pop 0 0 M 8 8 L 0 8 M 8 0 L stroke
	0 4 M 4 8 L 8 4 L 4 0 L 0 4 L stroke}
>> matrix makepattern
/Pat2 exch def
<< Tile8x8
 /PaintProc {0.5 setlinewidth pop 0 0 M 0 8 L
	8 8 L 8 0 L 0 0 L fill}
>> matrix makepattern
/Pat3 exch def
<< Tile8x8
 /PaintProc {0.5 setlinewidth pop -4 8 M 8 -4 L
	0 12 M 12 0 L stroke}
>> matrix makepattern
/Pat4 exch def
<< Tile8x8
 /PaintProc {0.5 setlinewidth pop -4 0 M 8 12 L
	0 -4 M 12 8 L stroke}
>> matrix makepattern
/Pat5 exch def
<< Tile8x8
 /PaintProc {0.5 setlinewidth pop -2 8 M 4 -4 L
	0 12 M 8 -4 L 4 12 M 10 0 L stroke}
>> matrix makepattern
/Pat6 exch def
<< Tile8x8
 /PaintProc {0.5 setlinewidth pop -2 0 M 4 12 L
	0 -4 M 8 12 L 4 -4 M 10 8 L stroke}
>> matrix makepattern
/Pat7 exch def
<< Tile8x8
 /PaintProc {0.5 setlinewidth pop 8 -2 M -4 4 L
	12 0 M -4 8 L 12 4 M 0 10 L stroke}
>> matrix makepattern
/Pat8 exch def
<< Tile8x8
 /PaintProc {0.5 setlinewidth pop 0 -2 M 12 4 L
	-4 0 M 12 8 L -4 4 M 8 10 L stroke}
>> matrix makepattern
/Pat9 exch def
/Pattern1 {PatternBgnd KeepColor Pat1 setpattern} bind def
/Pattern2 {PatternBgnd KeepColor Pat2 setpattern} bind def
/Pattern3 {PatternBgnd KeepColor Pat3 setpattern} bind def
/Pattern4 {PatternBgnd KeepColor Landscape {Pat5} {Pat4} ifelse setpattern} bind def
/Pattern5 {PatternBgnd KeepColor Landscape {Pat4} {Pat5} ifelse setpattern} bind def
/Pattern6 {PatternBgnd KeepColor Landscape {Pat9} {Pat6} ifelse setpattern} bind def
/Pattern7 {PatternBgnd KeepColor Landscape {Pat8} {Pat7} ifelse setpattern} bind def
} def
%
%
%End of PostScript Level 2 code
%
/PatternBgnd {
  TransparentPatterns {} {gsave 1 setgray fill grestore} ifelse
} def
%
% Substitute for Level 2 pattern fill codes with
% grayscale if Level 2 support is not selected.
%
/Level1PatternFill {
/Pattern1 {0.250 Density} bind def
/Pattern2 {0.500 Density} bind def
/Pattern3 {0.750 Density} bind def
/Pattern4 {0.125 Density} bind def
/Pattern5 {0.375 Density} bind def
/Pattern6 {0.625 Density} bind def
/Pattern7 {0.875 Density} bind def
} def
%
% Now test for support of Level 2 code
%
Level1 {Level1PatternFill} {Level2PatternFill} ifelse
%
/Symbol-Oblique /Symbol findfont [1 0 .167 1 0 0] makefont
dup length dict begin {1 index /FID eq {pop pop} {def} ifelse} forall
currentdict end definefont pop
%
/MFshow {
   { dup 5 get 3 ge
     { 5 get 3 eq {gsave} {grestore} ifelse }
     {dup dup 0 get findfont exch 1 get scalefont setfont
     [ currentpoint ] exch dup 2 get 0 exch R dup 5 get 2 ne {dup dup 6
     get exch 4 get {textshow} {stringwidth pop 0 R} ifelse }if dup 5 get 0 eq
     {dup 3 get {2 get neg 0 exch R pop} {pop aload pop M} ifelse} {dup 5
     get 1 eq {dup 2 get exch dup 3 get exch 6 get stringwidth pop -2 div
     dup 0 R} {dup 6 get stringwidth pop -2 div 0 R 6 get
     textshow 2 index {aload pop M neg 3 -1 roll neg R pop pop} {pop pop pop
     pop aload pop M} ifelse }ifelse }ifelse }
     ifelse }
   forall} def
/Gswidth {dup type /stringtype eq {stringwidth} {pop (n) stringwidth} ifelse} def
/MFwidth {0 exch { dup 5 get 3 ge { 5 get 3 eq { 0 } { pop } ifelse }
 {dup 3 get{dup dup 0 get findfont exch 1 get scalefont setfont
     6 get Gswidth pop add} {pop} ifelse} ifelse} forall} def
/MLshow { currentpoint stroke M
  0 exch R
  Blacktext {gsave 0 setgray MFshow grestore} {MFshow} ifelse } bind def
/MRshow { currentpoint stroke M
  exch dup MFwidth neg 3 -1 roll R
  Blacktext {gsave 0 setgray MFshow grestore} {MFshow} ifelse } bind def
/MCshow { currentpoint stroke M
  exch dup MFwidth -2 div 3 -1 roll R
  Blacktext {gsave 0 setgray MFshow grestore} {MFshow} ifelse } bind def
/XYsave    { [( ) 1 2 true false 3 ()] } bind def
/XYrestore { [( ) 1 2 true false 4 ()] } bind def
Level1 SuppressPDFMark or 
{} {
/SDict 10 dict def
systemdict /pdfmark known not {
  userdict /pdfmark systemdict /cleartomark get put
} if
SDict begin [
  /Title (plot.ps)
  /Subject (gnuplot plot)
  /Creator (gnuplot 5.0 patchlevel 3)
  /Author (hagbart)
%  /Producer (gnuplot)
%  /Keywords ()
  /CreationDate (Tue Mar 21 00:37:47 2017)
  /DOCINFO pdfmark
end
} ifelse
%
% Support for boxed text - Ethan A Merritt May 2005
%
/InitTextBox { userdict /TBy2 3 -1 roll put userdict /TBx2 3 -1 roll put
           userdict /TBy1 3 -1 roll put userdict /TBx1 3 -1 roll put
	   /Boxing true def } def
/ExtendTextBox { Boxing
    { gsave dup false charpath pathbbox
      dup TBy2 gt {userdict /TBy2 3 -1 roll put} {pop} ifelse
      dup TBx2 gt {userdict /TBx2 3 -1 roll put} {pop} ifelse
      dup TBy1 lt {userdict /TBy1 3 -1 roll put} {pop} ifelse
      dup TBx1 lt {userdict /TBx1 3 -1 roll put} {pop} ifelse
      grestore } if } def
/PopTextBox { newpath TBx1 TBxmargin sub TBy1 TBymargin sub M
               TBx1 TBxmargin sub TBy2 TBymargin add L
	       TBx2 TBxmargin add TBy2 TBymargin add L
	       TBx2 TBxmargin add TBy1 TBymargin sub L closepath } def
/DrawTextBox { PopTextBox stroke /Boxing false def} def
/FillTextBox { gsave PopTextBox 1 1 1 setrgbcolor fill grestore /Boxing false def} def
0 0 0 0 InitTextBox
/TBxmargin 20 def
/TBymargin 20 def
/Boxing false def
/textshow { ExtendTextBox Gshow } def
%
% redundant definitions for compatibility with prologue.ps older than 5.0.2
/LTB {BL [] LCb DL} def
/LTb {PL [] LCb DL} def
end
%%EndProlog
%%Page: 1 1
gnudict begin
gsave
doclip
50 50 translate
0.100 0.100 scale
90 rotate
0 -5040 translate
0 setgray
newpath
(Helvetica) findfont 140 scalefont setfont
BackgroundColor 0 lt 3 1 roll 0 lt exch 0 lt or or not {gsave BackgroundColor C clippath fill grestore} if
1.000 UL
LTb
LCb setrgbcolor
546 280 M
63 0 V
6338 0 R
-63 0 V
stroke
462 280 M
[ [(Helvetica) 140.0 0.0 true true 0 ( 0.4)]
] -46.7 MRshow
1.000 UL
LTb
LCb setrgbcolor
546 1045 M
63 0 V
6338 0 R
-63 0 V
stroke
462 1045 M
[ [(Helvetica) 140.0 0.0 true true 0 ( 0.6)]
] -46.7 MRshow
1.000 UL
LTb
LCb setrgbcolor
546 1810 M
63 0 V
6338 0 R
-63 0 V
stroke
462 1810 M
[ [(Helvetica) 140.0 0.0 true true 0 ( 0.8)]
] -46.7 MRshow
1.000 UL
LTb
LCb setrgbcolor
546 2575 M
63 0 V
6338 0 R
-63 0 V
stroke
462 2575 M
[ [(Helvetica) 140.0 0.0 true true 0 ( 1)]
] -46.7 MRshow
1.000 UL
LTb
LCb setrgbcolor
546 3341 M
63 0 V
6338 0 R
-63 0 V
stroke
462 3341 M
[ [(Helvetica) 140.0 0.0 true true 0 ( 1.2)]
] -46.7 MRshow
1.000 UL
LTb
LCb setrgbcolor
546 4106 M
63 0 V
6338 0 R
-63 0 V
stroke
462 4106 M
[ [(Helvetica) 140.0 0.0 true true 0 ( 1.4)]
] -46.7 MRshow
1.000 UL
LTb
LCb setrgbcolor
546 4871 M
63 0 V
6338 0 R
-63 0 V
stroke
462 4871 M
[ [(Helvetica) 140.0 0.0 true true 0 ( 1.6)]
] -46.7 MRshow
1.000 UL
LTb
LCb setrgbcolor
546 280 M
0 63 V
0 4528 R
0 -63 V
stroke
546 140 M
[ [(Helvetica) 140.0 0.0 true true 0 ( 0)]
] -46.7 MCshow
1.000 UL
LTb
LCb setrgbcolor
1826 280 M
0 63 V
0 4528 R
0 -63 V
stroke
1826 140 M
[ [(Helvetica) 140.0 0.0 true true 0 ( 2)]
] -46.7 MCshow
1.000 UL
LTb
LCb setrgbcolor
3106 280 M
0 63 V
0 4528 R
0 -63 V
stroke
3106 140 M
[ [(Helvetica) 140.0 0.0 true true 0 ( 4)]
] -46.7 MCshow
1.000 UL
LTb
LCb setrgbcolor
4387 280 M
0 63 V
0 4528 R
0 -63 V
stroke
4387 140 M
[ [(Helvetica) 140.0 0.0 true true 0 ( 6)]
] -46.7 MCshow
1.000 UL
LTb
LCb setrgbcolor
5667 280 M
0 63 V
0 4528 R
0 -63 V
stroke
5667 140 M
[ [(Helvetica) 140.0 0.0 true true 0 ( 8)]
] -46.7 MCshow
1.000 UL
LTb
LCb setrgbcolor
6947 280 M
0 63 V
0 4528 R
0 -63 V
stroke
6947 140 M
[ [(Helvetica) 140.0 0.0 true true 0 ( 10)]
] -46.7 MCshow
1.000 UL
LTb
LCb setrgbcolor
1.000 UL
LTB
LCb setrgbcolor
546 4871 N
546 280 L
6401 0 V
0 4591 V
-6401 0 V
Z stroke
1.000 UP
1.000 UL
LTb
LCb setrgbcolor
% Begin plot #1
1.000 UP
1.000 UL
LTb
LCb setrgbcolor
LCb setrgbcolor
6296 4738 M
[ [(Helvetica) 140.0 0.0 true true 0 (odeiv)]
] -46.7 MRshow
1.000 UP
1.000 UL
LTb
LCb setrgbcolor
546 663 Pls
610 758 Pls
674 853 Pls
738 947 Pls
802 1040 Pls
866 1131 Pls
930 1220 Pls
994 1306 Pls
1058 1389 Pls
1122 1470 Pls
1186 1547 Pls
1250 1620 Pls
1314 1690 Pls
1378 1756 Pls
1442 1819 Pls
1506 1878 Pls
1570 1933 Pls
1634 1985 Pls
1698 2033 Pls
1762 2078 Pls
1826 2119 Pls
1890 2158 Pls
1954 2194 Pls
2018 2227 Pls
2082 2257 Pls
2146 2285 Pls
2210 2311 Pls
2274 2335 Pls
2338 2356 Pls
2402 2376 Pls
2466 2394 Pls
2530 2411 Pls
2594 2426 Pls
2658 2439 Pls
2722 2452 Pls
2786 2463 Pls
2850 2474 Pls
2914 2483 Pls
2978 2492 Pls
3042 2500 Pls
3106 2507 Pls
3170 2513 Pls
3234 2519 Pls
3298 2524 Pls
3362 2529 Pls
3426 2533 Pls
3490 2537 Pls
3554 2541 Pls
3618 2544 Pls
3682 2547 Pls
3747 2550 Pls
3811 2552 Pls
3875 2555 Pls
3939 2557 Pls
4003 2558 Pls
4067 2560 Pls
4131 2561 Pls
4195 2563 Pls
4259 2564 Pls
4323 2565 Pls
4387 2566 Pls
4451 2567 Pls
4515 2568 Pls
4579 2568 Pls
4643 2569 Pls
4707 2570 Pls
4771 2570 Pls
4835 2571 Pls
4899 2571 Pls
4963 2572 Pls
5027 2572 Pls
5091 2572 Pls
5155 2573 Pls
5219 2573 Pls
5283 2573 Pls
5347 2573 Pls
5411 2574 Pls
5475 2574 Pls
5539 2574 Pls
5603 2574 Pls
5667 2574 Pls
5731 2574 Pls
5795 2574 Pls
5859 2575 Pls
5923 2575 Pls
5987 2575 Pls
6051 2575 Pls
6115 2575 Pls
6179 2575 Pls
6243 2575 Pls
6307 2575 Pls
6371 2575 Pls
6435 2575 Pls
6499 2575 Pls
6563 2575 Pls
6627 2575 Pls
6691 2575 Pls
6755 2575 Pls
6819 2575 Pls
6883 2575 Pls
6947 2575 Pls
6579 4738 Pls
% End plot #1
% Begin plot #2
1.000 UL
LTb
LT1
LCb setrgbcolor
LCb setrgbcolor
6296 4598 M
[ [(Helvetica) 140.0 0.0 true true 0 (exp\(x\)/\(1+exp\(x\)\))]
] -46.7 MRshow
1.000 UL
LTb
LT1
LCb setrgbcolor
6380 4598 M
399 0 V
546 663 M
64 95 V
64 95 V
64 94 V
64 93 V
64 91 V
64 89 V
64 86 V
64 83 V
64 81 V
64 77 V
64 73 V
64 70 V
64 66 V
64 63 V
64 59 V
64 55 V
64 52 V
64 48 V
64 45 V
64 41 V
64 39 V
64 36 V
64 33 V
64 30 V
64 28 V
64 26 V
64 24 V
64 21 V
64 20 V
64 18 V
64 17 V
64 15 V
64 13 V
64 13 V
64 11 V
64 11 V
64 9 V
64 9 V
64 8 V
64 7 V
64 6 V
64 6 V
64 5 V
64 5 V
64 4 V
64 4 V
64 4 V
64 3 V
64 3 V
65 3 V
64 2 V
64 3 V
64 1 V
64 2 V
64 2 V
64 1 V
64 2 V
64 1 V
64 1 V
64 1 V
64 1 V
64 1 V
64 0 V
64 1 V
64 1 V
64 0 V
64 1 V
64 0 V
64 1 V
64 0 V
64 0 V
64 1 V
64 0 V
64 0 V
64 0 V
64 1 V
64 0 V
64 0 V
64 0 V
64 0 V
64 0 V
64 0 V
64 1 V
64 0 V
64 0 V
64 0 V
64 0 V
64 0 V
64 0 V
64 0 V
64 0 V
64 0 V
64 0 V
64 0 V
64 0 V
64 0 V
64 0 V
64 0 V
64 0 V
64 0 V
% End plot #2
% Begin plot #3
1.000 UP
stroke
LTb
LT2
LCb setrgbcolor
LCb setrgbcolor
6296 4458 M
[ [(Helvetica) 140.0 0.0 true true 0 (orbit1)]
] -46.7 MRshow
1.000 UP
1.000 UL
LTb
LT2
LCb setrgbcolor
546 2575 Pls
610 2575 Pls
674 2575 Pls
738 2575 Pls
802 2575 Pls
866 2575 Pls
930 2575 Pls
994 2575 Pls
1058 2575 Pls
1122 2575 Pls
1186 2575 Pls
1250 2575 Pls
1314 2575 Pls
1378 2575 Pls
1442 2575 Pls
1506 2575 Pls
1570 2575 Pls
1634 2575 Pls
1698 2575 Pls
1762 2575 Pls
1826 2575 Pls
1890 2575 Pls
1954 2575 Pls
2018 2575 Pls
2082 2575 Pls
2146 2575 Pls
2210 2575 Pls
2274 2575 Pls
2338 2575 Pls
2402 2575 Pls
2466 2575 Pls
2530 2575 Pls
2594 2575 Pls
2658 2575 Pls
2722 2575 Pls
2786 2575 Pls
2850 2575 Pls
2914 2575 Pls
2978 2575 Pls
3042 2575 Pls
3106 2575 Pls
3170 2575 Pls
3234 2575 Pls
3298 2575 Pls
3362 2575 Pls
3426 2575 Pls
3490 2575 Pls
3554 2575 Pls
3618 2575 Pls
3682 2575 Pls
3747 2575 Pls
3811 2575 Pls
3875 2575 Pls
3939 2575 Pls
4003 2575 Pls
4067 2575 Pls
4131 2575 Pls
4195 2575 Pls
4259 2575 Pls
4323 2575 Pls
4387 2575 Pls
4451 2575 Pls
4515 2575 Pls
4579 2575 Pls
4643 2575 Pls
4707 2575 Pls
4771 2575 Pls
4835 2575 Pls
4899 2575 Pls
4963 2575 Pls
5027 2575 Pls
5091 2575 Pls
5155 2575 Pls
5219 2575 Pls
5283 2575 Pls
5347 2575 Pls
5411 2575 Pls
5475 2575 Pls
5539 2575 Pls
5603 2575 Pls
5667 2575 Pls
5731 2575 Pls
5795 2575 Pls
5859 2575 Pls
5923 2575 Pls
5987 2575 Pls
6051 2575 Pls
6115 2575 Pls
6179 2575 Pls
6243 2575 Pls
6307 2575 Pls
6371 2575 Pls
6435 2575 Pls
6499 2575 Pls
6563 2575 Pls
6627 2575 Pls
6691 2575 Pls
6755 2575 Pls
6819 2575 Pls
6883 2575 Pls
6947 2575 Pls
6579 4458 Pls
% End plot #3
% Begin plot #4
1.000 UP
1.000 UL
LTb
LT3
LCb setrgbcolor
LCb setrgbcolor
6296 4318 M
[ [(Helvetica) 140.0 0.0 true true 0 (orbit2)]
] -46.7 MRshow
1.000 UP
1.000 UL
LTb
LT3
LCb setrgbcolor
546 2575 Pls
610 2385 Pls
674 2195 Pls
738 2010 Pls
802 1831 Pls
866 1658 Pls
930 1495 Pls
994 1343 Pls
1058 1203 Pls
1122 1077 Pls
1186 966 Pls
1250 871 Pls
1314 793 Pls
1378 732 Pls
1442 690 Pls
1506 667 Pls
1570 663 Pls
1634 679 Pls
1698 713 Pls
1762 765 Pls
1826 836 Pls
1890 924 Pls
1954 1029 Pls
2018 1149 Pls
2082 1283 Pls
2146 1431 Pls
2210 1589 Pls
2274 1758 Pls
2338 1935 Pls
2402 2118 Pls
2466 2306 Pls
2530 2496 Pls
2594 2687 Pls
2658 2877 Pls
2722 3064 Pls
2786 3247 Pls
2850 3422 Pls
2914 3589 Pls
2978 3746 Pls
3042 3891 Pls
3106 4023 Pls
3170 4141 Pls
3234 4243 Pls
3298 4328 Pls
3362 4396 Pls
3426 4445 Pls
3490 4476 Pls
3554 4488 Pls
3618 4481 Pls
3682 4455 Pls
3747 4410 Pls
3811 4347 Pls
3875 4265 Pls
3939 4168 Pls
4003 4054 Pls
4067 3925 Pls
4131 3783 Pls
4195 3629 Pls
4259 3464 Pls
4323 3291 Pls
4387 3110 Pls
4451 2924 Pls
4515 2734 Pls
4579 2543 Pls
4643 2353 Pls
4707 2164 Pls
4771 1980 Pls
4835 1801 Pls
4899 1630 Pls
4963 1469 Pls
5027 1319 Pls
5091 1181 Pls
5155 1057 Pls
5219 949 Pls
5283 856 Pls
5347 781 Pls
5411 724 Pls
5475 685 Pls
5539 665 Pls
5603 665 Pls
5667 683 Pls
5731 720 Pls
5795 776 Pls
5859 850 Pls
5923 941 Pls
5987 1048 Pls
6051 1171 Pls
6115 1307 Pls
6179 1457 Pls
6243 1617 Pls
6307 1787 Pls
6371 1965 Pls
6435 2149 Pls
6499 2337 Pls
6563 2528 Pls
6627 2719 Pls
6691 2909 Pls
6755 3095 Pls
6819 3277 Pls
6883 3451 Pls
6947 3616 Pls
6579 4318 Pls
% End plot #4
% Begin plot #5
1.000 UP
2.000 UL
LTb
LCb setrgbcolor
LCb setrgbcolor
6296 4178 M
[ [(Helvetica) 140.0 0.0 true true 0 (orbit3)]
] -46.7 MRshow
1.000 UP
2.000 UL
LTb
LCb setrgbcolor
546 2575 Pls
610 2385 Pls
674 2196 Pls
738 2012 Pls
802 1833 Pls
866 1662 Pls
930 1501 Pls
994 1350 Pls
1058 1212 Pls
1122 1088 Pls
1186 978 Pls
1250 885 Pls
1314 809 Pls
1378 750 Pls
1442 710 Pls
1506 689 Pls
1570 686 Pls
1634 703 Pls
1698 738 Pls
1762 792 Pls
1826 863 Pls
1890 952 Pls
1954 1058 Pls
2018 1178 Pls
2082 1313 Pls
2146 1460 Pls
2210 1619 Pls
2274 1788 Pls
2338 1965 Pls
2402 2148 Pls
2466 2335 Pls
2530 2526 Pls
2594 2717 Pls
2658 2907 Pls
2722 3095 Pls
2786 3277 Pls
2850 3453 Pls
2914 3621 Pls
2978 3780 Pls
3042 3926 Pls
3106 4060 Pls
3170 4180 Pls
3234 4285 Pls
3298 4373 Pls
3362 4445 Pls
3426 4498 Pls
3490 4533 Pls
3554 4550 Pls
3618 4547 Pls
3682 4526 Pls
3747 4486 Pls
3811 4428 Pls
3875 4352 Pls
3939 4259 Pls
4003 4150 Pls
4067 4027 Pls
4131 3889 Pls
4195 3739 Pls
4259 3578 Pls
4323 3408 Pls
4387 3230 Pls
4451 3046 Pls
4515 2857 Pls
4579 2667 Pls
4643 2476 Pls
4707 2286 Pls
4771 2099 Pls
4835 1918 Pls
4899 1743 Pls
4963 1577 Pls
5027 1421 Pls
5091 1276 Pls
5155 1145 Pls
5219 1029 Pls
5283 927 Pls
5347 843 Pls
5411 776 Pls
5475 727 Pls
5539 697 Pls
5603 685 Pls
5667 692 Pls
5731 719 Pls
5795 764 Pls
5859 827 Pls
5923 908 Pls
5987 1005 Pls
6051 1119 Pls
6115 1247 Pls
6179 1389 Pls
6243 1542 Pls
6307 1706 Pls
6371 1879 Pls
6435 2060 Pls
6499 2245 Pls
6563 2435 Pls
6627 2626 Pls
6691 2817 Pls
6755 3006 Pls
6819 3191 Pls
6883 3370 Pls
6947 3542 Pls
6579 4178 Pls
% End plot #5
2.000 UL
LTb
LCb setrgbcolor
1.000 UL
LTB
LCb setrgbcolor
546 4871 N
546 280 L
6401 0 V
0 4591 V
-6401 0 V
Z stroke
1.000 UP
1.000 UL
LTb
LCb setrgbcolor
stroke
grestore
end
showpage
%%Trailer
%%DocumentFonts: Helvetica
%%Pages: 1
